{
  "Bootstrapper": {
    "Services": [
      {
        "Name": "GameServer",
        "Root": "GameServer",
        "AssemblyName": "GameServer",
        "IsKestrelService": true
      },
      {
        "Name": "AuthServer",
        "Root": "AuthServer",
        "AssemblyName": "AuthServer",
        "IsKestrelService": true,
        "Repository": {
          "ConnectionString": "mongodb+srv://bdfh-auth:APXS3xcb9xAjVit5@bdfh-dev.sb1dl.mongodb.net/bdfh-auth?retryWrites=true&w=majority",
          "Config": {
            "StartUid": 1000
          }
        }
      }
    ]
  }
}