﻿{
  "profiles": {
    "GameServer": {
      "commandName": "Project",
      "launchBrowser": false,
      "applicationUrl": "https://0.0.0.0;http://0.0.0.0",
      "environmentVariables": {
        "ASPNETCORE_ENVIRONMENT": "Development"
      }
    }
  }
}
